[truffle] opt fail         Call_2 --> <split-7d02451b>                                 |Reason org.graalvm.compiler.core.common.PermanentBailoutException: stack offset 28448 for oopmap is greater than encoding limit 15644 
[truffle] opt fail         evalArgs_2 --> <split-41c26c55>                             |Reason org.graalvm.compiler.core.common.PermanentBailoutException: stack offset 23792 for oopmap is greater than encoding limit 15644 
[truffle] opt fail         Call_2 --> <split-77e21a53>                                 |Reason org.graalvm.compiler.core.common.PermanentBailoutException: stack offset 18800 for oopmap is greater than encoding limit 15644 
196640
52126
5132
5994
139
82
15313
83
99
83
95
83
93
98
82
97
83
98
83
98
104
103
461
106
141
109
137
93
128
89
87
UnitV()
