42316
57658
#
# A fatal error has been detected by the Java Runtime Environment:
#
#  SIGSEGV (0xb) at pc=0x00000001047a42d9, pid=18386, tid=0x0000000000002003
#
# JRE version: Java(TM) SE Runtime Environment (8.0_161-b12) (build 1.8.0_161-b12)
# Java VM: GraalVM 1.0.0-rc1 (25.71-b01-internal-jvmci-0.42 mixed mode bsd-amd64 compressed oops)
# Problematic frame:
# V  [libjvm.dylib+0x5a42d9]
#
# Failed to write core dump. Core dumps have been disabled. To enable core dumping, try "ulimit -c unlimited" before starting Java again
#
# An error report file with more information is saved as:
# /Users/vladvergu/tud/slde/software/manlang18-benchmarks/hs_err_pid18386.log
Compiled method (nm)  146950 10431       4      (method)
 total in heap  [0x000000010e4de610,0x000000010e68c098] = 1759880
 relocation     [0x000000010e4de748,0x000000010e4e4298] = 23376
 main code      [0x000000010e4e42a0,0x000000010e530960] = 313024
 stub code      [0x000000010e530960,0x000000010e533378] = 10776
 oops           [0x000000010e533378,0x000000010e535270] = 7928
 metadata       [0x000000010e535270,0x000000010e535778] = 1288
 scopes data    [0x000000010e535778,0x000000010e66ce28] = 1275568
 scopes pcs     [0x000000010e66ce28,0x000000010e681e88] = 86112
 dependencies   [0x000000010e681e88,0x000000010e681f08] = 128
 handler table  [0x000000010e681f08,0x000000010e689900] = 31224
 nul chk table  [0x000000010e689900,0x000000010e68c098] = 10136
Compiled method (nm)  146951 10431       4      (method)
 total in heap  [0x000000010e4de610,0x000000010e68c098] = 1759880
 relocation     [0x000000010e4de748,0x000000010e4e4298] = 23376
 main code      [0x000000010e4e42a0,0x000000010e530960] = 313024
 stub code      [0x000000010e530960,0x000000010e533378] = 10776
 oops           [0x000000010e533378,0x000000010e535270] = 7928
 metadata       [0x000000010e535270,0x000000010e535778] = 1288
 scopes data    [0x000000010e535778,0x000000010e66ce28] = 1275568
 scopes pcs     [0x000000010e66ce28,0x000000010e681e88] = 86112
 dependencies   [0x000000010e681e88,0x000000010e681f08] = 128
 handler table  [0x000000010e681f08,0x000000010e689900] = 31224
 nul chk table  [0x000000010e689900,0x000000010e68c098] = 10136
#
# If you would like to submit a bug report, please visit:
#   http://bugreport.java.com/bugreport/crash.jsp
#
