55633
77025
#
# A fatal error has been detected by the Java Runtime Environment:
#
#  Internal Error (codeCache.cpp:273), pid=18486, tid=0x0000000000002403
#  guarantee(!result->is_zombie() || result->is_locked_by_vm() || is_error_reported()) failed: unsafe access to zombie method
#
# JRE version: Java(TM) SE Runtime Environment (8.0_161-b12) (build 1.8.0_161-b12)
# Java VM: GraalVM 1.0.0-rc1 (25.71-b01-internal-jvmci-0.42 mixed mode bsd-amd64 compressed oops)
# Failed to write core dump. Core dumps have been disabled. To enable core dumping, try "ulimit -c unlimited" before starting Java again
#
# An error report file with more information is saved as:
# /Users/vladvergu/tud/slde/software/manlang18-benchmarks/hs_err_pid18486.log
#
# If you would like to submit a bug report, please visit:
#   http://bugreport.java.com/bugreport/crash.jsp
#
